{
  "cviceni": {
    "version": {
      "global": "<%= version %>",
      "content": 2
    },
    "language": "cs",
    "slug": "jakou-budoucnost-nabizeli",
    "nazev": "Jakou budoucnost nabízeli?",
    "autor": [
      "Kamil Činátl"
    ],
    "katalog": [
      "test",
      "public"
    ],
    "klicovaSlova": [
      "pád komunismu",
      "sametová revoluce (1989, listopad 1989)",
      "budoucnost",
      "vnímání času",
      "srovnání"
    ],
    "anotace": {
      "ucitel": "Cvičení seznamuje žáky s novoročními projevy prezidentů Husáka a Havla z let 1988 a 1990. Při analýze zvukových záznamů si žáci uvědomí, jak se lišily představy o budoucnosti před a po roce 1989.",
      "verejna": "Dva prezidentské projevy. Dělí je od sebe dva roky, a přesto jsou tak odlišné. Zaposlouchejte se do ukázek a zjistěte, jakou budoucnost prezidenti občanům Československa nabízeli. Jaká budoucnost by se líbila vám?"
    },
    "trvani": 30,
    "funkce": [
      "lupa",
      "cteni",
      "text",
      "audio",
      "svg",
      "kresleni"
    ],
    "uvodniObrazek": "jakou-budoucnost-nabizeli/pic-00-1280w.jpg",
    "pdf": {
      "doporucenyPostup": "jakou-budoucnost-nabizeli.pdf"
    },
    "id": 51
  },
  "slajd": [
    {
      "class": [
        "half-slide-previous"
      ],
      "zadani": {
        "hlavni": "Porovnejte fotografie prezidentů.",
        "rozsirujici": "Vyznačte podstatné rozdíly, které na fotografiích nacházíte, a popište je."
      },
      "napoveda": {
        "aktivity": [
          "svg"
        ],
        "text": "Kliknutím na snímek levým tlačítkem myši označujete bod. Nakliknutím na bod pravým tlačítkem otevřete menu s nabídkou úkonů: změnit barvu bodu, (T) doplnit textový komentář, (X) smazat nakliknutý objekt."
      },
      "svg": {
        "soubory": [
          {
            "id": "svg-1",
            "soubor": "jakou-budoucnost-nabizeli/pic-00-1024w.jpg",
            "funkce": [
              "text",
              "znacky"
            ]
          },
          {
            "id": "svg-2",
            "soubor": "jakou-budoucnost-nabizeli/pic-01-1024w.jpg",
            "funkce": [
              "text",
              "znacky"
            ]
          }
        ]
      },
      "popisky": [
        "Prezident republiky Gustáv Husák při novoročním projevu 1. 1. 1988. Foto Jiří Kruliš. Zdroj: ČTK",
        "Prezident republiky Václav Havel při novoročním projevu 1. 1. 1990. Foto Michal Kalina. Zdroj: ČTK"
      ]
    },
    {
      "class": [
        "half-slide-active"
      ],
      "zadani": {
        "hlavni": "Poslechněte si novoroční projevy prezidentů.",
        "rozsirujici": ""
      },
      "napoveda": {
        "aktivity": [
          "audio"
        ],
        "text": ""
      },
      "media": {
        "nastaveni": {
          "vzhled": "normalni",
          "layout": "vertikalni"
        },
        "soubory": [
          {
            "soubor": "jakou-budoucnost-nabizeli/audio-00.mp3",
            "nazev": "Záznam projevu G. Husáka",
            "popisek": "Novoroční projev Gustáva Husáka, 1. 1. 1988. Zdroj: Archiv ČRo"
          },
          {
            "soubor": "jakou-budoucnost-nabizeli/audio-01.mp3",
            "nazev": "Záznam projevu V. Havla",
            "popisek": "Novoroční projev Václava Havla, 1. 1. 1990. Zdroj: Archiv ČRo"
          }
        ]
      }
    },
    {
      "zadani": {
        "hlavni": "Zapište hlavní myšlenky projevu.",
        "rozsirujici": ""
      },
      "napoveda": {
        "aktivity": [
          "svg",
          "audio"
        ],
        "text": "Vpisujte kliknutím do bubliny."
      },
      "svg": {
        "nastaveni": {
          "layout": "velka-galerie"
        },
        "galerie": [
          {
            "soubor": "jakou-budoucnost-nabizeli/audio-00.mp3",
            "nazev": "Záznam projevu G. Husáka",
            "popisek": "Novoroční projev Gustáva Husáka, 1. 1. 1988. Zdroj: Archiv ČRo"
          }
        ],
        "soubory": [
          {
            "id": "svg-3",
            "soubor": "jakou-budoucnost-nabizeli/pic-00-1024w.jpg",
            "funkce": [
              "text",
              "znacky",
              "komiks"
            ],
            "komiks": [
              {
                "kategorie": "text",
                "subkategorie": "myslenka",
                "pozice": [
                  100,
                  170
                ],
                "subjekt": [
                  "top",
                  "right"
                ]
              },
              {
                "kategorie": "text",
                "subkategorie": "myslenka",
                "pozice": [
                  615,
                  170
                ],
                "subjekt": [
                  "top",
                  "left"
                ]
              }
            ]
          }
        ]
      }
    },
    {
      "zadani": {
        "hlavni": "Zapište hlavní myšlenky projevu.",
        "rozsirujici": ""
      },
      "napoveda": {
        "aktivity": [
          "svg",
          "audio"
        ],
        "text": "Vpisujte kliknutím do bubliny."
      },
      "svg": {
        "nastaveni": {
          "layout": "velka-galerie"
        },
        "galerie": [
          {
            "soubor": "jakou-budoucnost-nabizeli/audio-01.mp3",
            "nazev": "Záznam projevu V. Havla",
            "popisek": "Novoroční projev Václava Havla, 1. 1. 1990. Zdroj: Archiv ČRo"
          }
        ],
        "soubory": [
          {
            "id": "svg-4",
            "soubor": "jakou-budoucnost-nabizeli/pic-01-1024w.jpg",
            "funkce": [
              "text",
              "znacky",
              "komiks"
            ],
            "komiks": [
              {
                "kategorie": "text",
                "subkategorie": "myslenka",
                "pozice": [
                  120,
                  100
                ],
                "subjekt": [
                  "top",
                  "right"
                ]
              },
              {
                "kategorie": "text",
                "subkategorie": "myslenka",
                "pozice": [
                  700,
                  100
                ],
                "subjekt": [
                  "top",
                  "left"
                ]
              }
            ]
          }
        ]
      }
    },
    {
      "zadani": {
        "hlavni": "Pokuste se o shrnutí analýzy.",
        "rozsirujici": ""
      },
      "napoveda": {
        "aktivity": [
          "text"
        ],
        "text": "Do boxu pro text zapisujete odpověď na otázku, nebo jiný komentář (dle zadání)."
      },
      "uzivatelskyText": {
        "otazky": [
          {
            "id": "text-1",
            "zadani": "V čem se novoroční projevy lišily?",
            "instrukce": "Myslím si, že…",
            "minDelka": 10,
            "optimum": 150,
            "maxDelka": 400
          },
          {
            "id": "text-2",
            "zadani": "Jakou budoucnost prezidenti občanům nabízeli?",
            "instrukce": "Myslím si, že…",
            "minDelka": 10,
            "optimum": 150,
            "maxDelka": 400
          }
        ]
      }
    }
  ]
}